{
 "compilerOptions": {
  "baseUrl": ".",
  "paths": {
   "*": [
    "../../../../../Library/Caches/hugo_cache/modules/filecache/modules/pkg/mod/github.com/!google!chrome/workbox@v7.1.0+incompatible/packages/workbox-cacheable-response/src/*",
    "../../../../../Library/Caches/hugo_cache/modules/filecache/modules/pkg/mod/github.com/!google!chrome/workbox@v7.1.0+incompatible/packages/workbox-core/src/*",
    "../../../../../Library/Caches/hugo_cache/modules/filecache/modules/pkg/mod/github.com/!google!chrome/workbox@v7.1.0+incompatible/packages/workbox-expiration/src/*",
    "../../../../../Library/Caches/hugo_cache/modules/filecache/modules/pkg/mod/github.com/!google!chrome/workbox@v7.1.0+incompatible/packages/workbox-routing/src/*",
    "../../../../../Library/Caches/hugo_cache/modules/filecache/modules/pkg/mod/github.com/!google!chrome/workbox@v7.1.0+incompatible/packages/workbox-strategies/src/*",
    "../../../../../Library/Caches/hugo_cache/modules/filecache/modules/pkg/mod/github.com/jakearchibald/idb@v7.1.1+incompatible/src/*"
   ]
  }
 }
}